{
"game": {
	"words": [

		{"word":"seulement","tags":"CE1 adv","help":""},
		{"word":"avant","tags":"CE1 adv nom","help":""},
		{"word":"courir","tags":"CE1 ver","help":""},
		{"word":"ardoise","tags":"CE1 nom","help":""},
		{"word":"arbitre","tags":"CE1 nom","help":""},
		{"word":"livre","tags":"CE1 nom","help":""},
		{"word":"épreuve","tags":"CE1 nom","help":""},
		{"word":"petit","tags":"CE1 adj","help":""},
		{"word":"grand","tags":"CE1 adj","help":""},
		{"word":"stylo","tags":"CE1 nom","help":""},
		{"word":"renard","tags":"CE1 nom","help":""},
		{"word":"paon","tags":"CE1 nom","help":""},
		{"word":"éponge","tags":"CE1 nom","help":""},
		{"word":"beaucoup","tags":"CE1 adv","help":""},
		{"word":"peu","tags":"CE1","help":""},
		{"word":"avec","tags":"CE1","help":""},
		{"word":"dans","tags":"CE1","help":"comme dans : dans le jardin"},
		{"word":"alors","tags":"CE1","help":""},
		{"word":"pour","tags":"CE1","help":""},
		{"word":"cela","tags":"CE1","help":""},
		{"word":"sang","tags":"CE1","help":"comme dans : le sang dans le corps"},
		{"word":"sans","tags":"CE1","help":"comme dans : une nuit sans lune"},
		{"word":"peinture","tags":"CE1","help":""},
		{"word":"ceinture","tags":"CE1","help":""},
		{"word":"mes","tags":"CE1","help":"comme dans : mes bonbons"},
		{"word":"mais","tags":"CE1","help":"comme dans : il est bête mais gentil"},
		{"word":"rien","tags":"CE1","help":""},
		{"word":"nuit","tags":"CE1","help":""},
		{"word":"jamais","tags":"CE1","help":""},
		{"word":"loin","tags":"CE1","help":""},
		{"word":"assez","tags":"CE1","help":""},
		{"word":"maintenant","tags":"CE1","help":""},
		{"word":"chez","tags":"CE1","help":""},
		{"word":"comment","tags":"CE1","help":""},
		{"word":"devant","tags":"CE1","help":""},
		{"word":"derrière","tags":"CE1","help":""},
		{"word":"souvent","tags":"CE1","help":""},
		{"word":"chose","tags":"CE1","help":""},
		{"word":"terre","tags":"CE1","help":"le synonyme de sol"},
		{"word":"après","tags":"CE1","help":""},
		{"word":"toujours","tags":"CE1","help":""},
		{"word":"année","tags":"CE1","help":""},
		{"word":"anniversaire","tags":"CE1","help":""},
		{"word":"attendre","tags":"CE1","help":""},
		{"word":"regarder","tags":"CE1 ver","help":""},
		{"word":"mettre","tags":"CE1 ver","help":"comme dans : mettre ses chaussettes"},
		{"word":"manger","tags":"CE1 ver","help":""},
		{"word":"jouer","tags":"CE1 ver","help":""},
		{"word":"commencer","tags":"CE1 ver","help":""},
		{"word":"vraiment","tags":"CE1 adv","help":""},
		{"word":"un","tags":"CE1","help":""},
		{"word":"deux","tags":"CE1","help":""},
		{"word":"trois","tags":"CE1","help":""},
		{"word":"quatre","tags":"CE1","help":""},
		{"word":"cinq","tags":"CE1","help":""},
		{"word":"six","tags":"CE1","help":""},
		{"word":"sept","tags":"CE1","help":""},
		{"word":"huit","tags":"CE1","help":""},
		{"word":"neuf","tags":"CE1","help":""},
		{"word":"dix","tags":"CE1","help":""},
		{"word":"onze","tags":"CE1","help":""},
		{"word":"douze","tags":"CE1","help":""},
		{"word":"treize","tags":"CE1","help":""},
		{"word":"quatorze","tags":"CE1","help":""},
		{"word":"quinze","tags":"CE1","help":""},
		{"word":"seize","tags":"CE1","help":""},
		{"word":"vingt","tags":"CE1","help":""},
		{"word":"trente","tags":"CE1","help":""},
		{"word":"quarante","tags":"CE1","help":""},
		{"word":"cinquante","tags":"CE1","help":""},
		{"word":"soixante","tags":"CE1","help":""},
		{"word":"cent","tags":"CE1","help":"comme dans : cent quatre vingt"},
		{"word":"mille","tags":"CE1","help":""},
		{"word":"parc","tags":"CE1","help":""},
		{"word":"blanc","tags":"CE1","help":""},
		{"word":"tronc","tags":"CE1","help":""},
		{"word":"enfant","tags":"CE1","help":""},
		{"word":"gendarme","tags":"CE1","help":""},
		{"word":"voleur","tags":"CE1","help":""},
		{"word":"garage","tags":"CE1","help":""},
		{"word":"cour","tags":"CE1","help":"Comme dans : la cour de récréation"},
		{"word":"glaçon","tags":"CE1","help":""},
		{"word":"rapidement","tags":"CE1","help":""},
		{"word":"grignoter","tags":"CE1","help":""},
		{"word":"heureux","tags":"CE1","help":""},
		{"word":"heureuse","tags":"CE1","help":""},
		{"word":"parfois","tags":"CE1","help":""},
		{"word":"partout","tags":"CE1","help":""},
		{"word":"voilà","tags":"CE1","help":""},
		{"word":"pendant","tags":"CE1","help":""},
		{"word":"faire","tags":"CE1 ver","help":""},
		{"word":"venir","tags":"CE1 ver","help":""},
		{"word":"aller","tags":"CE1 ver","help":""},
		{"word":"dire","tags":"CE1 ver","help":""},
		{"word":"picorer","tags":"CE1 ver","help":""},
		{"word":"graine","tags":"CE1 nom","help":""},
		{"word":"oiseau","tags":"CE1 nom","help":""},
		{"word":"cadeau","tags":"CE1 nom","help":""},
		{"word":"petite","tags":"CE1 adj","help":""},
		{"word":"soeur","tags":"CE1 nom","help":""},
		{"word":"ensemble","tags":"CE1 adv","help":""},
		{"word":"asseoir","tags":"CE1 adv","help":"Comme dans : Il vient s'asseoir près de moi."},
		{"word":"voisin","tags":"CE1 adj nom","help":""},
		{"word":"jardin","tags":"CE1 nom","help":""},
		{"word":"temps","tags":"CE1 nom","help":""},
		{"word":"heureusement","tags":"CE1 adv","help":""},

		{"word":"tôt","tags":"CE2 adv","help":""},
		{"word":"déjà","tags":"CE2 adv","help":""},
		{"word":"hélas","tags":"CE2 adv","help":""},
		{"word":"très","tags":"CE2 adv","help":""},
		{"word":"après","tags":"CE2 adv","help":""},
		{"word":"côté","tags":"CE2 adv","help":"Comme dans : à côté."},
		{"word":"derrière","tags":"CE2 adv","help":""},
		{"word":"voici","tags":"CE2 pre","help":""},
		{"word":"voilà","tags":"CE2 pre","help":""},
		{"word":"bientôt","tags":"CE2 adv","help":""},
		{"word":"parce que","tags":"CE2 con","help":""},
		{"word":"poupée","tags":"CE2 nom","help":""},
		{"word":"jouet","tags":"CE2 nom","help":""},
		{"word":"réviser","tags":"CE2 ver","help":""},
		{"word":"dictée","tags":"CE2 nom","help":""},
		{"word":"jamais","tags":"CE2 adv","help":""},
		{"word":"toujours","tags":"CE2 adv","help":""},
		{"word":"aujourd'hui","tags":"CE2 adv","help":""},
		{"word":"hier","tags":"CE2 adv","help":""},
		{"word":"aussitôt","tags":"CE2 adv","help":""},
		{"word":"neige","tags":"CE2 nom","help":""},
		{"word":"capitaine","tags":"CE2 nom","help":""},
		{"word":"chercher","tags":"CE2 ver","help":""},
		{"word":"baleine","tags":"CE2 nom","help":""},
		{"word":"semaine","tags":"CE2 nom","help":""},
		{"word":"dernière","tags":"CE2 adv","help":""},
		{"word":"jumelle","tags":"CE2 nom","help":""},
		{"word":"d'abord","tags":"CE2 nom","help":""},
		{"word":"beaucoup","tags":"CE2 nom","help":""},
		{"word":"près","tags":"CE2 nom","help":""},
		{"word":"pendant","tags":"CE2 nom","help":""},
		{"word":"pourtant","tags":"CE2 nom","help":""},
		{"word":"soudain","tags":"CE2 nom","help":""},
		{"word":"dessus","tags":"CE2 nom","help":""},
		{"word":"tabouret","tags":"CE2 nom","help":""},
		{"word":"comme","tags":"CE2 nom","help":""},
		{"word":"comment","tags":"CE2 nom","help":""},
		{"word":"guère","tags":"CE2 nom","help":""},
		{"word":"davantage","tags":"CE2 nom","help":""},
		{"word":"dessous","tags":"CE2 nom","help":""},
		{"word":"fraise","tags":"CE2 nom","help":""},
		{"word":"gâteau","tags":"CE2 nom","help":""},
		{"word":"autant","tags":"CE2 nom","help":""},
		{"word":"lorsque","tags":"CE2 nom","help":""},
		{"word":"dehors","tags":"CE2 nom","help":""},
		{"word":"plutôt","tags":"CE2 nom","help":""},
		{"word":"chapeau","tags":"CE2 nom","help":""},
		{"word":"oiseau","tags":"CE2 nom","help":""},
		{"word":"automne","tags":"CE2 nom","help":""},
		{"word":"manteau","tags":"CE2 nom","help":""},
		{"word":"mauve","tags":"CE2 nom","help":""},
		{"word":"promener","tags":"CE2 nom","help":""},
		{"word":"observer","tags":"CE2 nom","help":""},
		{"word":"boeuf","tags":"CE2 nom","help":""},
		{"word":"rêver","tags":"CE2 nom","help":""},
		{"word":"rouge","tags":"CE2 nom","help":""},
		{"word":"grenouille","tags":"CE2 nom","help":""},
		{"word":"langue","tags":"CE2 nom","help":""},
		{"word":"gonfler","tags":"CE2 nom","help":""},
		{"word":"grosse","tags":"CE2 nom","help":""},
		{"word":"devenir","tags":"CE2 nom","help":""},
		{"word":"quoi","tags":"CE2 nom","help":""},
		{"word":"quelqu'un","tags":"CE2 nom","help":""},
		{"word":"quelquefois","tags":"CE2 nom","help":""},
		{"word":"écouter","tags":"CE2 nom","help":""},
		{"word":"apprendre","tags":"CE2 nom","help":""},
		{"word":"chorale","tags":"CE2 nom","help":""},
		{"word":"participer","tags":"CE2 nom","help":""},
		{"word":"appliquer","tags":"CE2 nom","help":""},
		{"word":"musique","tags":"CE2 nom","help":""},
		{"word":"écriture","tags":"CE2 nom","help":""},
		{"word":"classe","tags":"CE2 nom","help":""},
		{"word":"mercredi","tags":"CE2 nom","help":""},
		{"word":"lecture","tags":"CE2 nom","help":""},
		{"word":"durant","tags":"CE2 nom","help":""},
		{"word":"dimanche","tags":"CE2 nom","help":""},
		{"word":"signe","tags":"CE2 nom","help":""},
		{"word":"chanter","tags":"CE2 nom","help":""},
		{"word":"apercevoir","tags":"CE2 nom","help":""},
		{"word":"courber","tags":"CE2 nom","help":""},
		{"word":"blanche","tags":"CE2 nom","help":""},
		{"word":"nager","tags":"CE2 nom","help":""},
		{"word":"lac","tags":"CE2 nom","help":""},
		{"word":"plume","tags":"CE2 nom","help":""},
		{"word":"autrement","tags":"CE2 nom","help":""},
		{"word":"ensuite","tags":"CE2 nom","help":""},
		{"word":"auprès","tags":"CE2 nom","help":""},
		{"word":"autrefois","tags":"CE2 nom","help":""},
		{"word":"balançoire","tags":"CE2 nom","help":""},
		{"word":"cirque","tags":"CE2 nom","help":""},
		{"word":"addition","tags":"CE2 nom","help":""},
		{"word":"escalade","tags":"CE2 nom","help":""},
		{"word":"acrobatie","tags":"CE2 nom","help":""},
		{"word":"sport","tags":"CE2 nom","help":""},
		{"word":"plusieurs","tags":"CE2 nom","help":""},
		{"word":"papillon","tags":"CE2 nom","help":""},
		{"word":"soleil","tags":"CE2 nom","help":""},
		{"word":"briller","tags":"CE2 nom","help":""},
		{"word":"rayon","tags":"CE2 nom","help":""},
		{"word":"incroyable","tags":"CE2 nom","help":""},
		{"word":"voyage","tags":"CE2 nom","help":""},
		{"word":"illuminer","tags":"CE2 nom","help":""},
		{"word":"gentille","tags":"CE2 nom","help":""},
		{"word":"combien","tags":"CE2 nom","help":""},
		{"word":"environ","tags":"CE2 nom","help":""},
		{"word":"attention","tags":"CE2 nom","help":""},
		{"word":"envers","tags":"CE2 nom","help":""},
		{"word":"sinon","tags":"CE2 nom","help":""},
		{"word":"selon","tags":"CE2 nom","help":""},
		{"word":"montagne","tags":"CE2 nom","help":""},
		{"word":"campagne","tags":"CE2 nom","help":""},
		{"word":"camion","tags":"CE2 nom","help":""},
		{"word":"lampe","tags":"CE2 nom","help":""},
		{"word":"pompier","tags":"CE2 nom","help":""},
		{"word":"tante","tags":"CE2 nom","help":"Comme tatie Céline."},
		{"word":"tente","tags":"CE2 nom","help":"Pour camper."},
		{"word":"trompette","tags":"CE2 nom","help":""},
		{"word":"chambre","tags":"CE2 nom","help":""},
		{"word":"compter","tags":"CE2 nom","help":""},
		{"word":"monter","tags":"CE2 nom","help":""},
		{"word":"entre","tags":"CE2 nom","help":""},
		{"word":"mieux","tags":"CE2 nom","help":""},
		{"word":"pinceau","tags":"CE2 nom","help":""},
		{"word":"plein","tags":"CE2 nom","help":""},
		{"word":"mince","tags":"CE2 nom","help":""},
		{"word":"rincer","tags":"CE2 nom","help":""},
		{"word":"peindre","tags":"CE2 nom","help":""},
		{"word":"indien","tags":"CE2 nom","help":""},
		{"word":"musicien","tags":"CE2 nom","help":""},
		{"word":"cymbale","tags":"CE2 nom","help":""},
		{"word":"choisir","tags":"CE2 nom","help":""},



        {"word":"semaine", "tags":"liste13", "help":""},
        {"word":"effort", "tags":"liste13", "help":""},
        {"word":"tromper", "tags":"liste13", "help":""},
        {"word":"condition", "tags":"liste13", "help":""},
        {"word":"forêt", "tags":"liste13", "help":""},
        {"word":"quelque", "tags":"liste13", "help":""},
        {"word":"intérieur", "tags":"liste13", "help":""},
        {"word":"quinze", "tags":"liste13", "help":""},
        {"word":"assurer", "tags":"liste13", "help":""},
        {"word":"vert", "tags":"liste13", "help":""},
        {"word":"vendre", "tags":"liste13", "help":""},
        {"word":"classe", "tags":"liste13", "help":""},
        {"word":"pur", "tags":"liste13", "help":""},
        {"word":"art", "tags":"liste13", "help":""},
        {"word":"beauté", "tags":"liste13", "help":""},
        {"word":"voyage", "tags":"liste13", "help":""},
        {"word":"qualité", "tags":"liste13", "help":""},
        {"word":"moindre", "tags":"liste13", "help":""},
        {"word":"riche", "tags":"liste13", "help":""},
        {"word":"auprès", "tags":"liste13", "help":""},
        {"word":"prince", "tags":"liste13", "help":""},
        {"word":"demain", "tags":"liste13", "help":""},
        {"word":"craindre", "tags":"liste13", "help":""},
        {"word":"présent", "tags":"liste13", "help":""},
        {"word":"bien", "tags":"liste13", "help":""},
        {"word":"quanrante", "tags":"liste13", "help":""},
        {"word":"étrange", "tags":"liste13", "help":""},
        {"word":"caratère", "tags":"liste13", "help":""},
        {"word":"également", "tags":"liste13", "help":""},
        {"word":"cinquante", "tags":"liste13", "help":""},
        {"word":"naturel", "tags":"liste13", "help":""},
        {"word":"attention", "tags":"liste13", "help":""},
        {"word":"deviner", "tags":"liste13", "help":""},
        {"word":"foule", "tags":"liste13", "help":""},
        {"word":"emporter", "tags":"liste13", "help":""},
        {"word":"gris", "tags":"liste13", "help":""},
        {"word":"médecin", "tags":"liste13", "help":""},
        {"word":"appartenir", "tags":"liste13", "help":""},
        {"word":"ensuite", "tags":"liste13", "help":""},
        {"word":"or", "tags":"liste13", "help":""},
        {"word":"considérer", "tags":"liste13", "help":""},
        {"word":"aussitôt", "tags":"liste13", "help":""},
        {"word":"soin", "tags":"liste13", "help":""},
        {"word":"rouler", "tags":"liste13", "help":""},
        {"word":"volonté", "tags":"liste13", "help":""},
        {"word":"ligne", "tags":"liste13", "help":""},
        {"word":"hasard", "tags":"liste13", "help":""},
        {"word":"seigneur", "tags":"liste13", "help":""},
        {"word":"représenter", "tags":"liste13", "help":""},
        {"word":"puis", "tags":"liste13", "help":""},

        {"word":"moyen", "tags":"liste16", "help":""},
        {"word":"éprouver", "tags":"liste16", "help":""},
        {"word":"passage", "tags":"liste16", "help":""},
        {"word":"parvenir", "tags":"liste16", "help":""},
        {"word":"fuir", "tags":"liste16", "help":""},
        {"word":"attacher", "tags":"liste16", "help":""},
        {"word":"gauche", "tags":"liste16", "help":""},
        {"word":"meilleur", "tags":"liste16", "help":""},
        {"word":"couler", "tags":"liste16", "help":""},
        {"word":"supérieur", "tags":"liste16", "help":""},
        {"word":"douze", "tags":"liste16", "help":""},
        {"word":"paysan", "tags":"liste16", "help":""},
        {"word":"unique", "tags":"liste16", "help":""},
        {"word":"justice", "tags":"liste16", "help":""},
        {"word":"écontroller", "tags":"liste16", "help":""},
        {"word":"l'une", "tags":"liste16", "help":""},
        {"word":"voleur", "tags":"liste16", "help":""},
        {"word":"retenir", "tags":"liste16", "help":""},
        {"word":"imaginer", "tags":"liste16", "help":""},
        {"word":"dernier", "tags":"liste16", "help":""},
        {"word":"proposer", "tags":"liste16", "help":""},
        {"word":"Seconde", "tags":"liste16", "help":""},
        {"word":"faute", "tags":"liste16", "help":""},
        {"word":"ouvert", "tags":"liste16", "help":""},
        {"word":"police", "tags":"liste16", "help":""},
        {"word":"surprendre", "tags":"liste16", "help":""},
        {"word":"diriger", "tags":"liste16", "help":""},
        {"word":"en", "tags":"liste16", "help":""},
        {"word":"tranquille", "tags":"liste16", "help":""},
        {"word":"typepoursuivre", "tags":"liste16", "help":""},
        {"word":"poète", "tags":"liste16", "help":""},
        {"word":"rocher", "tags":"liste16", "help":""},
        {"word":"ensemble", "tags":"liste16", "help":""},
        {"word":"bonbonsavis", "tags":"liste16", "help":""},
        {"word":"eaux", "tags":"liste16", "help":""},
        {"word":"somme", "tags":"liste16", "help":""},
        {"word":"sujet", "tags":"liste16", "help":""},
        {"word":"remarquer", "tags":"liste16", "help":""},
        {"word":"rire", "tags":"liste16", "help":""},
        {"word":"science", "tags":"liste16", "help":""},
        {"word":"côte", "tags":"liste16", "help":""},
        {"word":"contenir", "tags":"liste16", "help":""},
        {"word":"époque", "tags":"liste16", "help":""},
        {"word":"doucement", "tags":"liste16", "help":""},
        {"word":"terme", "tags":"liste16", "help":""},
        {"word":"vin", "tags":"liste16", "help":""},
        {"word":"briser", "tags":"liste16", "help":""},

		{"word":"chair", "tags":"liste17", "help":"comme la chair d'un fruit"},
		{"word":"réalité", "tags":"liste17", "help":""},
		{"word":"direction", "tags":"liste17", "help":""},
		{"word":"couper", "tags":"liste17", "help":""},
		{"word":"éviter", "tags":"liste17", "help":""},
		{"word":"confiance", "tags":"liste17", "help":""},
		{"word":"taille", "tags":"liste17", "help":""},
		{"word":"trou", "tags":"liste17", "help":""},
		{"word":"soudain", "tags":"liste17", "help":""},
		{"word":"masse", "tags":"liste17", "help":""},
		{"word":"désirer", "tags":"liste17", "help":""},
		{"word":"inconnu", "tags":"liste17", "help":""},
		{"word":"succès", "tags":"liste17", "help":""},
		{"word":"crise", "tags":"liste17", "help":""},
		{"word":"santé", "tags":"liste17", "help":""},
		{"word":"pont", "tags":"liste17", "help":""},
		{"word":"île", "tags":"liste17", "help":"comme l'île aux singes"},
		{"word":"étonner", "tags":"liste17", "help":""},
		{"word":"ventre", "tags":"liste17", "help":""},
		{"word":"lune", "tags":"liste17", "help":""},
		{"word":"établir", "tags":"liste17", "help":""},
		{"word":"pose", "tags":"liste17", "help":""},
		{"word":"marché", "tags":"liste17", "help":""},
		{"word":"dehors", "tags":"liste17", "help":""},
		{"word":"réussir", "tags":"liste17", "help":""},
		{"word":"dresser", "tags":"liste17", "help":""},
		{"word":"puissant", "tags":"liste17", "help":""},
		{"word":"certes", "tags":"liste17", "help":""},
		{"word":"pencher", "tags":"liste17", "help":""},
		{"word":"durer", "tags":"liste17", "help":""},
		{"word":"simplement", "tags":"liste17", "help":""},
		{"word":"robe", "tags":"liste17", "help":""},
		{"word":"habiter", "tags":"liste17", "help":""},
		{"word":"depuis", "tags":"liste17", "help":""},
		{"word":"environ", "tags":"liste17", "help":""},
		{"word":"douter", "tags":"liste17", "help":""},
		{"word":"entourer", "tags":"liste17", "help":""},
		{"word":"faux", "tags":"liste17", "help":""},
		{"word":"tellement", "tags":"liste17", "help":""},
		{"word":"retirer", "tags":"liste17", "help":""},
		{"word":"déclarer", "tags":"liste17", "help":""},
		{"word":"fixer", "tags":"liste17", "help":""},
		{"word":"arracher", "tags":"liste17", "help":""},
		{"word":"beaux", "tags":"liste17", "help":""},
		{"word":"détail", "tags":"liste17", "help":""},
		{"word":"énorme", "tags":"liste17", "help":""},
		{"word":"entraîner", "tags":"liste17", "help":""},
		{"word":"arme", "tags":"liste17", "help":""},
		{"word":"principe", "tags":"liste17", "help":""},
		{"word":"soutenir", "tags":"liste17", "help":""},

		{"word":"vague", "tags":"liste18", "help":""},
		{"word":"nez", "tags":"liste18", "help":""},
		{"word":"sain", "tags":"liste18", "help":""},
		{"word":"poussière", "tags":"liste18", "help":""},
		{"word":"élément", "tags":"liste18", "help":""},
		{"word":"maladie", "tags":"liste18", "help":""},
		{"word":"second", "tags":"liste18", "help":""},
		{"word":"théâtre", "tags":"liste18", "help":""},
		{"word":"cesse", "tags":"liste18", "help":""},
		{"word":"aide", "tags":"liste18", "help":""},
		{"word":"toit", "tags":"liste18", "help":""},
		{"word":"nu", "tags":"liste18", "help":""},
		{"word":"brusquement", "tags":"liste18", "help":""},
		{"word":"voie", "tags":"liste18", "help":"comme la voie sans issue"},
		{"word":"vaste", "tags":"liste18", "help":""},
		{"word":"vaste", "tags":"liste18", "help":""},
		{"word":"hors", "tags":"liste18", "help":""},
		{"word":"dent", "tags":"liste18", "help":"comme celles de la bouche"},
		{"word":"examiner", "tags":"liste18", "help":""},
		{"word":"un", "tags":"liste18", "help":""},
		{"word":"remplir", "tags":"liste18", "help":""},
		{"word":"connaissance", "tags":"liste18", "help":""},
		{"word":"fil", "tags":"liste18", "help":""},
		{"word":"terminer", "tags":"liste18", "help":""},
		{"word":"nord", "tags":"liste18", "help":""},
		{"word":"promener", "tags":"liste18", "help":""},
		{"word":"particulier", "tags":"liste18", "help":""},
		{"word":"lourd", "tags":"liste18", "help":""},
		{"word":"armée", "tags":"liste18", "help":""},
		{"word":"quant à", "tags":"liste18", "help":""},
		{"word":"chaleur", "tags":"liste18", "help":""},
		{"word":"aile", "tags":"liste18", "help":""},
		{"word":"remonter", "tags":"liste18", "help":""},
		{"word":"but", "tags":"liste18", "help":""},
		{"word":"revoir", "tags":"liste18", "help":""},
		{"word":"véritable", "tags":"liste18", "help":""},
		{"word":"tenter", "tags":"liste18", "help":""},
		{"word":"camarade", "tags":"liste18", "help":""},
		{"word":"vide", "tags":"liste18", "help":""},
		{"word":"remplir", "tags":"liste18", "help":""},
		{"word":"émotion", "tags":"liste18", "help":""},
		{"word":"entrée", "tags":"liste18", "help":""},
		{"word":"discours", "tags":"liste18", "help":""},
		{"word":"flamme", "tags":"liste18", "help":""},
		{"word":"révolution", "tags":"liste18", "help":""},
		{"word":"source", "tags":"liste18", "help":""},
		{"word":"forcer", "tags":"liste18", "help":""},
		{"word":"chaise", "tags":"liste18", "help":""},
		{"word":"cou", "tags":"liste18", "help":"comme le cou sous la tête"},
		{"word":"gloire", "tags":"liste18", "help":""},
		{"word":"ennemi", "tags":"liste18", "help":""}

	]}

}
